[
	{
		"label": "boonGUI",
		"options": [
			{
				"type": "dropdown",
				"label": "[color=\"220 185 70\"]Scroll[/color] speed",
				"tooltip": "Set the speed at which you move across the map.[color=\"255 0 0\"]\nRESTART NECESSARY\nThis value is kept even if you disable the boonGUI mod.[/color]",
				"config": "view.scroll.speed",
				"list": [
					{
						"value": "50.0",
						"label": "50 - Slower"
					},
					{
						"value": "80.0",
						"label": "80 - Slow"
					},
					{
						"value": "120.0",
						"label": "[color=\"220 185 70\"]120 - Default[/color]"
					},
					{
						"value": "180.0",
						"label": "180 - Fast"
					},
					{
						"value": "250.0",
						"label": "250 - Faster"
					},
					{
						"value": "350.0",
						"label": "350 - Ultra Fast"
					}
				]
			},
			{
				"type": "dropdown",
				"label": "[color=\"220 185 70\"]Rotation[/color] speed: Horizontal",
				"tooltip": "Set the speed at which you rotate left/right.[color=\"255 0 0\"]\nRESTART NECESSARY\nThis value is kept even if you disable the boonGUI mod.[/color]",
				"config": "view.rotate.x.speed",
				"list": [
					{
						"value": "0.5",
						"label": "0.5 - Slower"
					},
					{
						"value": "0.8",
						"label": "0.8 - Slow"
					},
					{
						"value": "1.2",
						"label": "[color=\"220 185 70\"]1.2 - Default[/color]"
					},
					{
						"value": "1.8",
						"label": "1.8 - Fast"
					},
					{
						"value": "2.5",
						"label": "2.5 - Faster"
					},
					{
						"value": "3.5",
						"label": "3.5 - Ultra Fast"
					}
				]
			},
			{
				"type": "dropdown",
				"label": "[color=\"220 185 70\"]Rotation[/color] speed: Vertical",
				"tooltip": "Set the speed at which you rotate up/down.[color=\"255 0 0\"]\nRESTART NECESSARY\nThis value is kept even if you disable the boonGUI mod.[/color]",
				"config": "view.rotate.y.speed",
				"list": [
					{
						"value": "1.1",
						"label": "1.1 - Slower"
					},
					{
						"value": "1.8",
						"label": "1.8 - Slow"
					},
					{
						"value": "2.0",
						"label": "[color=\"220 185 70\"]2 - Default[/color]"
					},
					{
						"value": "4.1",
						"label": "3.9 - Fast"
					},
					{
						"value": "5.8",
						"label": "5.8 - Faster"
					},
					{
						"value": "8.2",
						"label": "8.2 - Ultra Fast"
					}
				]
			},
			{
				"type": "dropdown",
				"label": "[color=\"220 185 70\"]Zoom[/color] speed: Hotkey",
				"tooltip": "Set the speed at which you zoom in/out with your hotkeys.[color=\"255 0 0\"]\nRESTART NECESSARY\nThis value is kept even if you disable the boonGUI mod.[/color]",
				"config": "view.zoom.speed",
				"list": [
					{
						"value": "150.0",
						"label": "150 - Slower"
					},
					{
						"value": "200.0",
						"label": "200 - Slow"
					},
					{
						"value": "256.0",
						"label": "[color=\"220 185 70\"]256 - Default[/color]"
					},
					{
						"value": "350.0",
						"label": "350 - Fast"
					},
					{
						"value": "500.0",
						"label": "500 - Faster"
					},
					{
						"value": "650.0",
						"label": "650 - Ultra Fast"
					}
				]
			},
			{
				"type": "dropdown",
				"label": "[color=\"220 185 70\"]Zoom[/color] speed: Mouse wheel",
				"tooltip": "Set the speed at which you zoom in/out with your mouse wheel.[color=\"255 0 0\"]\nRESTART NECESSARY\nThis value is kept even if you disable the boonGUI mod.[/color]",
				"config": "view.zoom.speed.wheel",
				"list": [
					{
						"value": "15.0",
						"label": "15 - Slower"
					},
					{
						"value": "25.0",
						"label": "25 - Slow"
					},
					{
						"value": "32.0",
						"label": "[color=\"220 185 70\"]32 - Default[/color]"
					},
					{
						"value": "50.0",
						"label": "50 - Fast"
					},
					{
						"value": "75.0",
						"label": "75 - Faster"
					},
					{
						"value": "100.0",
						"label": "100 - Ultra Fast"
					}
				]
			},
			{
				"type": "dropdown",
				"label": "[color=\"220 185 70\"]Zoom[/color] out distance",
				"tooltip": "Set how far you can zoom out.[color=\"255 0 0\"]\nRESTART NECESSARY\nThis value is kept even if you disable the boonGUI mod.[/color]",
				"config": "view.zoom.max",
				"list": [
					{
						"value": "200.0",
						"label": "[color=\"220 185 70\"]200 - Default[/color]"
					},
					{
						"value": "300.0",
						"label": "300 - Far"
					},
					{
						"value": "400.0",
						"label": "400 - Further"
					}
				]
			},
			{
				"type": "dropdown",
				"label": "[color=\"220 185 70\"]Zoom[/color] in distance",
				"tooltip": "Set how close you can zoom in.[color=\"255 0 0\"]\nRESTART NECESSARY\nThis value is kept even if you disable the boonGUI mod.[/color]",
				"config": "view.zoom.min",
				"list": [
					{
						"value": "10.0",
						"label": "10 - Closer"
					},
					{
						"value": "30.0",
						"label": "30 - Close"
					},
					{
						"value": "50.0",
						"label": "[color=\"220 185 70\"]50 - Default[/color]"
					}
				]
			},
			{
				"type": "dropdown",
				"label": "[color=\"220 185 70\"]Windowed mode[/color] screen width",
				"tooltip": "Screen width in windowed mode.[color=\"255 0 0\"]\nRESTART NECESSARY\nThis value is kept even if you disable the boonGUI mod.[/color][color=\"220 185 70\"]",
				"config": "xres",
				"list": [
					{
						"value": "1024",
						"label": "[color=\"220 185 70\"]1024 - Default[/color]"
					},
					{
						"value": "1280",
						"label": "1280"
					},
					{
						"value": "1440",
						"label": "1440"
					}
				]
			},
			{
				"type": "dropdown",
				"label": "[color=\"220 185 70\"]Windowed mode[/color] screen height",
				"tooltip": "Screen height in windowed mode.[color=\"255 0 0\"]\nRESTART NECESSARY\nThis value is kept even if you disable the boonGUI mod.[/color][color=\"220 185 70\"]",
				"config": "yres",
				"list": [
					{
						"value": "768",
						"label": "[color=\"220 185 70\"]768 - Default[/color]"
					},
					{
						"value": "800",
						"label": "800"
					},
					{
						"value": "900",
						"label": "900"
					}
				]
			},
			{
				"type": "boolean",
				"label": "[color=\"220 185 70\"]Top Panel[/color] Display time duration of replays",
				"tooltip": "Decide if you want to see the time duration of the replay above the top panel. ",
				"config": "boongui.showduration"
			},
			{
				"type": "dropdown",
				"label": "[color=\"220 185 70\"]Top Panel[/color] Gatheres or Income/10s",
				"tooltip": "Specify what to display next to the resource count.\n\n[color=\"220 185 70\"]Gatherers:[/color] Total number of units that are gathering and on their way to gather this resource.\n[color=\"220 185 70\"]Income/10s:[/color] Total number of resources income over 10 seconds.",
				"config": "boongui.toppanel.resourceGatherersRates",
				"list": [
					{
						"value": "Gatherers",
						"label": "[color=\"220 185 70\"]Gatherers - Default[/color]"
					},
					{
						"value": "Rates",
						"label": "Income/10s"
					}
				]
			},
			{
				"type": "slider",
				"label": "[color=\"220 185 70\"]Top Panel[/color] row color intensity",
				"tooltip": "Choose the color intensity for the rows.",
				"config": "boongui.toppanel.coloredPlayerStatsBackground",
				"min": 5,
				"max": 50
			}
		]
	},
	{
		"label": "proGUI",
		"options": [
			{
				"type": "dropdown",
				"label": "[color=\"220 185 70\"]Right Panel[/color] Theme Color [color=\"220 25 25\"] Need Restart [/color]",
				"tooltip": "Change the color of the buttons when toggled.",
				"config": "boongui.rightPanel.color",
				"list": [
					{
						"value": "red",
						"label": "[color=\"220 25 25\"] red [/color]"
					},
					{
						"value": "blue",
						"label": "[color=\"210 210 255\"] light blue [/color]"
					},
					{
						"value": "darkblue",
						"label": "[color=\"125 120 225\"] dark blue [/color][color=\"220 185 70\"] <!> Bad [/color]"
					}
					
				]
			},
			{
				"type": "slider",
				"label": "[color=\"220 185 70\"]Right Panel[/color] size idle workers row [color=\"220 25 25\"] Restart [/color]",
				"tooltip": "Set the size of the Icon for idles",
				"config": "boongui.controlPanel.rowSize.1",
				"min": 0.5,
				"max": 1
			},
			{
				"type": "slider",
				"label": "[color=\"220 185 70\"]Right Panel[/color] size idle buildings row [color=\"220 25 25\"] Restart [/color]",
				"tooltip": "Set the size of the Icon for idles",
				"config": "boongui.controlPanel.rowSize.2",
				"min": 0.5,
				"max": 1
			},
			{
				"type": "slider",
				"label": "[color=\"220 185 70\"]Auto-Tribute Settings[/color] resource reserve",
				"tooltip": "Won't share resource below the set reserve",
				"config": "boongui.autoTribute.tributeReserve",
				"min": 0,
				"max": 5000
			},
			{
				"type": "slider",
				"label": "[color=\"220 185 70\"]Auto-Tribute Settings[/color] share weight food",
				"tooltip": "0 won't share food, 1 will treat ally food as important as yours",
				"config": "boongui.autoTribute.tributeShareFood",
				"min": 0,
				"max": 1.2
			},
			{
				"type": "slider",
				"label": "[color=\"220 185 70\"]Auto-Tribute Settings[/color] share weight wood",
				"tooltip": "0 won't share wood, 1 will treat ally wood as important as yours",
				"config": "boongui.autoTribute.tributeShareWood",
				"min": 0,
				"max": 1.2
			},
			{
				"type": "slider",
				"label": "[color=\"220 185 70\"]Auto-Tribute Settings[/color] share weight stone",
				"tooltip": "0 won't share stone, 1 will treat ally stone as important as yours",
				"config": "boongui.autoTribute.tributeShareStone",
				"min": 0,
				"max": 1.2
			},
			{
				"type": "slider",
				"label": "[color=\"220 185 70\"]Auto-Tribute Settings[/color] share weight metal",
				"tooltip": "0 won't share metal, 1 will treat ally metal as important as yours",
				"config": "boongui.autoTribute.tributeShareMetal",
				"min": 0,
				"max": 1.2
			},
			{
				"type": "slider",
				"label": "[color=\"220 185 70\"]Top Panel Settings[/color] Tribute amount",
				"tooltip": "Tribute amount when clicking a resource on the top panel",
				"config": "boongui.topPanel.tributeAmount",
				"min": 50,
				"max": 500
			},
			{
				"type": "string",
				"label": "[color=\"220 185 70\"]Top Panel Settings[/color] Message requesting help",
				"tooltip": "Will send: '[this message] + Resource clicked', in chat.",
				"config": "boongui.topPanel.tributeMessage"
			},
			{
				"type": "boolean",
				"label": "[color=\"220 185 70\"]Eco-Help Lumber[/color] Activate Lumber upgrade",
				"tooltip": "Check if you want lumber upgrades to be researched when available",
				"config": "boongui.ecohelp.storeHouseActive"
			},
			{
				"type": "slider",
				"label": "[color=\"220 185 70\"]Eco-Help Lumber[/color] Wood amount Phase I",
				"tooltip": "Amount of wood in reserve before researching upgrade in Phase I",
				"config": "boongui.ecohelp.woodStorehouseP1",
				"min": 200,
				"max": 1000
			},
			{
				"type": "boolean",
				"label": "[color=\"220 185 70\"]Eco-Help Farm[/color] Activate Farm upgrade",
				"tooltip": "Check if you want farm upgrades to be researched when available",
				"config": "boongui.ecohelp.farmActive"
			},			
			{
				"type": "slider",
				"label": "[color=\"220 185 70\"]Eco-Help Farm[/color] Wood amount Phase I",
				"tooltip": "Amount of wood in reserve before researching upgrade in Phase I",
				"config": "boongui.ecohelp.woodFarmP1",
				"min": 200,
				"max": 1000
			},
			{
				"type": "boolean",
				"label": "[color=\"220 185 70\"]Eco-Help Gather[/color] Activate Fruits Gathering upgrade",
				"tooltip": "Check if you want Fruits Gathering upgrades to be researched when available",
				"config": "boongui.ecohelp.fruitsActive"
			},
			{
				"type": "boolean",
				"label": "[color=\"220 185 70\"]Barter[/color] Enable ProGUI Barter [color=\"220 25 25\"] Need Restart [/color]",
				"tooltip": "Check if you want the barters options to show on the right panel",
				"config": "boongui.barter.isEnabled"
			},			
			{
				"type": "slider",
				"label": "[color=\"220 185 70\"]Barter[/color] Resource Reserve",
				"tooltip": "Amount of resources that can't be sold by barter",
				"config": "boongui.barter.reserve",
				"min": 800,
				"max": 5000
			},
			{
				"type": "slider",
				"label": "[color=\"220 185 70\"]Barter[/color] Buy NORMAL Condition",
				"tooltip": "Buy when this difference in price is met in NORMAL condition",
				"config": "boongui.barter.minDelta",
				"min": 2,
				"max": 100
			},			
			{
				"type": "slider",
				"label": "[color=\"220 185 70\"]Barter[/color] LOW Resource Condition",
				"tooltip": "Amount of resources that triggers LOW condition to buy",
				"config": "boongui.barter.lowRes",
				"min": 0,
				"max": 600
			},
			{
				"type": "slider",
				"label": "[color=\"220 185 70\"]Barter[/color] Condition to buy LOW Resource",
				"tooltip": "Price accepted when LOW resource condition is met",
				"config": "boongui.barter.maxDelta",
				"min": -70,
				"max": 50
			},
			{
				"type": "slider",
				"label": "[color=\"220 185 70\"]Barter[/color] Delay between two barter",
				"tooltip": "Minimum delay between two barter (in ms, 1000 = 1sec)",
				"config": "boongui.barter.barterDealy",
				"min": 200,
				"max": 5000
			},
			{
				"type": "slider",
				"label": "[color=\"220 185 70\"]Barter[/color] Time displayed order",
				"tooltip": "Time on wich the orders counts are displayed (in ms, 1000 = 1sec)",
				"config": "boongui.barter.barterLookUpTime",
				"min": 1001,
				"max": 20000
			},
			{
				"type": "slider",
				"label": "[color=\"220 185 70\"]NextPhase[/color] Push Order front",
				"tooltip": "If the current production has a time remaining over this time, order will be pushed to front (in ms, 1000 = 1sec)",
				"config": "boongui.barter.pushOrderIfFrontTimeRemaining",
				"min": 1000,
				"max": 30000
			}			
		]
	},
	{
		"label": "proGUI Trainer",
		"options": [
			{
				"type": "boolean",
				"label": "[color=\"220 185 70\"]Trainer[/color] Hide tabs when trainer is off",
				"tooltip": "Check if you want to hide trainer tab when it's off",
				"config": "boongui.controlPanel.hideTabsWhenOff"
			},
			{
				"type": "slider",
				"label": "[color=\"220 185 70\"]Training Settings[/color] max units trained in batch ",
				"tooltip": "Set the maximum number of units trainable in a single batch",
				"config": "boongui.trainer.MaxBatchSize",
				"min": 1,
				"max": 100
			},
			{
				"type": "slider",
				"label": "[color=\"220 185 70\"]Training Settings[/color] batch multiples",
				"tooltip": "Trainer will train bach size that's a multiple of this number.",
				"config": "boongui.trainer.batchMultiple",
				"min": 1,
				"max": 5
			},
			{
				"type": "slider",
				"label": "[color=\"220 185 70\"]Training Settings[/color] food reserve",
				"tooltip": "Unit training won't consume food below this reserve",
				"config": "boongui.trainer.foodReserve",
				"min": 0,
				"max": 1000
			},
			{
				"type": "slider",
				"label": "[color=\"220 185 70\"]Training Settings[/color] wood reserve",
				"tooltip": "Unit training won't consume wood below this reserve",
				"config": "boongui.trainer.woodReserve",
				"min": 0,
				"max": 1000
			},
			{
				"type": "slider",
				"label": "[color=\"220 185 70\"]Training Settings[/color] stone reserve",
				"tooltip": "Unit training won't consume stone below this reserve",
				"config": "boongui.trainer.stoneReserve",
				"min": 0,
				"max": 1000
			},
			{
				"type": "slider",
				"label": "[color=\"220 185 70\"]Training Settings[/color] metal reserve",
				"tooltip": "Unit training won't consume metal below this reserve",
				"config": "boongui.trainer.metalReserve",
				"min": 0,
				"max": 1000
			},
			{
				"type": "boolean",
				"label": "[color=\"220 185 70\"]Trainer GamePlay Mode[/color][color=\"100 135 225\"] Spam [/color]or [color=\"100 135 225\"]Compo[/color] Mode",
				"tooltip": "(ON is Spam Mode, OFF better for Compo) When activating or desactivating a unit for the trainer, set the % to 0. If you just want the trainer to spam, check this, otherwise for advanced compo making, uncheck it. Will also start a game with preset 50% inf 50% ranged.",
				"config": "boongui.trainer.toogleResetToZero"
			},
			{
				"type": "boolean",
				"label": "[color=\"220 185 70\"]Trainer GamePlay Mode[/color][color=\"100 135 225\"] Spam [/color]or [color=\"100 135 225\"]Compo[/color] Train lower units first ",
				"tooltip": "(ON better for Spam Mode, OFF better for Compo Mode) Check if you want, for example, females to train over cavalry if both are toggled in the Training Tab",
				"config": "boongui.trainer.reversePriority"
			},
			{
				"type": "boolean",
				"label": "[color=\"220 185 70\"]Trainer[/color] Strict Composition [color=\"220 25 25\"]May result in idle buildings[/color]",
				"tooltip": "'Hard Limit' Will stop training any units if it's already over composition (Ex: Stables stay idles if cav is trained over target) ",
				"config": "boongui.trainer.strictCompo"
			},
			{
				"type": "slider",
				"label": "[color=\"220 185 70\"]Trainer (for [color=\"100 135 225\"]Compo[/color])[/color] allocation Increment",
				"tooltip": "'scroll speed' Set the incrementation size when changing trainer allocation (with mouse wheel)",
				"config": "boongui.trainer.increment",
				"min": 1,
				"max": 20
			}
		]
	},
	{
		"label": "BetterQuickStart",
		"options": [
			{
				"type": "boolean",
				"label": "[color=\"220 185 70\"]QuickStart[/color] EnableQuickStart",
				"tooltip": "Decide if you want QuickStart enabled or not ",
				"config": "boongui.quickStart.enabled"
			},
			{
				"type": "dropdown",
				"label": "[color=\"220 185 70\"]QuickStart[/color] Melee units assignement",
				"tooltip": "What should melee infantry gather?",
				"config": "boongui.quickStart.meleeAssignment",
				"list": [
					{
						"value": "tree",
						"label": "[color=\"220 185 70\"]tree - Default[/color]"
					},
					{
						"value": "fruit",
						"label": "fruit"
					},
					{
						"value": "meat",
						"label": "meat"
					},
					{
						"value": "unassigned",
						"label": "unassigned"
					}
				]
			},
			{
				"type": "dropdown",
				"label": "[color=\"220 185 70\"]QuickStart[/color] Ranged units assignement",
				"tooltip": "What should ranged infantry gather?",
				"config": "boongui.quickStart.rangedAssignment",
				"list": [
					{
						"value": "tree",
						"label": "[color=\"220 185 70\"]tree - Default[/color]"
					},
					{
						"value": "fruit",
						"label": "fruit"
					},
					{
						"value": "meat",
						"label": "meat"
					},
					{
						"value": "unassigned",
						"label": "unassigned"
					}
				]
			},
			{
				"type": "dropdown",
				"label": "[color=\"220 185 70\"]QuickStart[/color] Cavalry units assignement",
				"tooltip": "What should cavalry gather?",
				"config": "boongui.quickStart.cavalryAssignment",
				"list": [
					{
						"value": "meat",
						"label": "[color=\"220 185 70\"]meat - Default[/color]"
					},
					{
						"value": "fruit",
						"label": "fruit"
					},
					{
						"value": "tree",
						"label": "tree"
					},
					{
						"value": "unassigned",
						"label": "unassigned"
					}
				]
			},
			{
				"type": "dropdown",
				"label": "[color=\"220 185 70\"]QuickStart[/color] Females assignement",
				"tooltip": "What should females gather? Set to meat to play like DoctorOrgans.",
				"config": "boongui.quickStart.femaleAssignment",
				"list": [
					{
						"value": "fruit",
						"label": "[color=\"220 185 70\"]fruit - Default[/color]"
					},
					{
						"value": "meat",
						"label": "meat"
					},
					{
						"value": "tree",
						"label": "tree"
					},
					{
						"value": "unassigned",
						"label": "unassigned"
					}
				]
			},
			{
				"type": "dropdown",
				"label": "[color=\"220 185 70\"]QuickStart[/color] Select units",
				"tooltip": "What units do you want selected?",
				"config": "boongui.quickStart.selectUnits",
				"list": [
					{
						"value": "FemaleCitizen",
						"label": "[color=\"220 185 70\"]FemaleCitizen - Default[/color]"
					},
					{
						"value": "Cavalry",
						"label": "Cavalry"
					},
					{
						"value": "Melee",
						"label": "Melee"
					},
					{
						"value": "Ranged",
						"label": "Ranged"
					},
					{
						"value": "CivilCentre",
						"label": "CivilCentre"
					}
				]
			},
			{
				"type": "dropdown",
				"label": "[color=\"220 185 70\"]QuickStart[/color] First training batch unit type",
				"tooltip": "What units do you want selected?",
				"config": "boongui.quickStart.unitsToTrain",
				"list": [
					{
						"value": "0",
						"label": "[color=\"220 185 70\"]Female - Default[/color]"
					},
					{
						"value": "1",
						"label": "Melee"
					},
					{
						"value": "2",
						"label": "Ranged"
					},
					{
						"value": "3",
						"label": "Cavalry"
					}				
				]
			},
			{
				"type": "slider",
				"label": "[color=\"220 185 70\"]QuickStart[/color] First training batch size",
				"tooltip": "Amount of units to train the first batch when starting (will be rounded)",
				"config": "boongui.quickStart.numberOfUnitsToTrain",
				"min": 1,
				"max": 10
			},
			{
				"type": "dropdown",
				"label": "[color=\"220 185 70\"]QuickStart[/color] Camera focus",
				"tooltip": "What resource to focus camera on?",
				"config": "boongui.quickStart.camerafocus",
				"list": [
					{
						"value": "fruit",
						"label": "[color=\"220 185 70\"]fruit - Default[/color]"
					},
					{
						"value": "meat",
						"label": "meat"
					},
					{
						"value": "tree",
						"label": "tree"
					}
				]
			},
			{
				"type": "dropdown",
				"label": "[color=\"220 185 70\"]QuickStart[/color] Prepare Building",
				"tooltip": "What building to prepare?",
				"config": "boongui.quickStart.placeFoundation",
				"list": [
					{
						"value": "None",
						"label": "[color=\"220 185 70\"]None - Default[/color]"
					},
					{
						"value": "farmstead",
						"label": "farmstead"
					},
					{
						"value": "storehouse",
						"label": "storehouse"
					},
					{
						"value": "house",
						"label": "house"
					}
				]
			},
			{
				"type": "dropdown",
				"label": "[color=\"220 185 70\"]QuickStart[/color] Set Rally Point",
				"tooltip": "What resource to set rally on?",
				"config": "boongui.quickStart.rallyPoint",
				"list": [
					{
						"value": "tree ",
						"label": "[color=\"220 185 70\"] tree - Default[/color]"
					},
					{
						"value": "None",
						"label": "None"
					},
					{
						"value": "fruit",
						"label": "fruit"
					},
					{
						"value": "meat",
						"label": "meat"
					}				
				]
			},
			{
				"type": "boolean",
				"label": "[color=\"220 185 70\"]QuickStart[/color] Unload unassigned units",
				"tooltip": "Keep unassigned units Garnisoned if unchecked",
				"config": "boongui.quickStart.unloadIfUndefined"
			},
			{
				"type": "boolean",
				"label": "[color=\"220 185 70\"]Seeh Chain[/color] Enable",
				"tooltip": "Impact performance. Not recommanded.",
				"config": "progui.stockfish.enable"
			},
			{
				"type": "boolean",
				"label": "[color=\"220 185 70\"]Seeh Chain[/color] MaxSpeed",
				"tooltip": "Impact performance. Game can crash. Not recommanded.",
				"config": "progui.stockfish.MaxSpeed"
			}

		]
	}
]